tezt/_regressions/007.007-PsDELPH1.delegate.frozen_balance.out

./tezos-codec encode 007-PsDELPH1.delegate.frozen_balance from '{
  "deposit": "0",
  "fees": "100000000000",
  "rewards": "23425"
}'
0080d0dbc3f40281b701

./tezos-codec decode 007-PsDELPH1.delegate.frozen_balance from 0080d0dbc3f40281b701
{ "deposit": "0", "fees": "100000000000", "rewards": "23425" }
